%YAML 1.1
%TAG !u! tag:unity3d.com,2011:
--- !u!1045 &1
EditorBuildSettings:
  m_ObjectHideFlags: 0
  serializedVersion: 2
  m_Scenes:
  - enabled: 1
    path: Assets/Scenes/StartGame.unity
    guid: 6f036e625f5e8884c8ca442cc0e5dc81
  - enabled: 1
    path: Assets/Scenes/Settings.unity
    guid: 57e757ed987eb664bb3ceabcdfcaa081
  - enabled: 1
    path: Assets/Scenes/SampleScene.unity
    guid: 2cda990e2423bbf4892e6590ba056729
  - enabled: 1
    path: Assets/Scenes/WinScene.unity
    guid: 4e711d09c503edf41842601c3218ad9e
  m_configObjects: {}
